pattern	nb	tap	beat
1.000000	1.000000	11.785250	11.764500	
1.000000	2.000000	12.180350	12.264500	
1.000000	3.000000	12.704200	12.764500	
1.000000	4.000000	13.209888	13.264500	
1.000000	5.000000	13.715850	13.764500	
1.000000	6.000000	14.219500	14.264500	
1.000000	7.000000	14.711600	14.764500	
2.000000	1.000000	15.706413	15.764500	
2.000000	2.000000	16.232441	16.264500	
2.000000	3.000000	16.718875	16.764500	
2.000000	4.000000	17.202481	17.264500	
2.000000	5.000000	17.695500	17.764500	
2.000000	6.000000	18.214944	18.264500	
2.000000	7.000000	18.729659	18.764500	
3.000000	1.000000	19.777802	19.764500	
3.000000	2.000000	20.235921	20.264500	
3.000000	3.000000	20.719950	20.765400	
3.000000	4.000000	21.252721	21.265400	
3.000000	5.000000	21.730394	21.765400	
3.000000	6.000000	22.205273	22.265400	
3.000000	7.000000	22.713673	22.765400	
