pattern	nb	tap	beat
1.000000	1.000000	3.645718	3.495200	
1.000000	2.000000	4.289250	4.138200	
1.000000	3.000000	4.742570	4.606900	
1.000000	4.000000	5.326038	5.196300	
1.000000	5.000000	5.661807	5.495200	
1.000000	6.000000	6.184725	6.048900	
1.000000	7.000000	6.842700	6.687400	
1.000000	8.000000	7.802150	7.670400	
1.000000	9.000000	8.336050	8.193200	
1.000000	10.000000	8.680100	8.519400	
1.000000	11.000000	9.747761	9.631900	
1.000000	12.000000	10.202350	10.043000	
1.000000	13.000000	11.344039	11.218100	
1.000000	14.000000	11.663295	11.504100	
1.000000	15.000000	12.150000	11.975100	
1.000000	16.000000	13.290950	13.145800	
1.000000	17.000000	13.989850	13.842800	
1.000000	18.000000	15.031150	14.888300	
1.000000	19.000000	16.548700	16.420800	
1.000000	20.000000	17.001600	16.814000	
1.000000	21.000000	18.262650	18.123200	
1.000000	22.000000	NaN	19.150900	
1.000000	23.000000	NaN	20.250100	
1.000000	24.000000	20.706392	20.531500	
1.000000	25.000000	21.322450	21.027500	
1.000000	26.000000	22.132034	22.006000	
1.000000	27.000000	22.844700	22.707500	
1.000000	28.000000	24.505550	24.360700	
1.000000	29.000000	25.267100	25.124800	
1.000000	30.000000	25.936800	25.777100	
