pattern	nb	tap	beat
1.000000	1.000000	8.153492	7.907100	
1.000000	2.000000	8.650194	8.429900	
1.000000	3.000000	8.934889	8.756100	
1.000000	4.000000	10.031268	9.868600	
1.000000	5.000000	10.582485	10.279700	
1.000000	6.000000	12.036247	11.740800	
1.000000	7.000000	NaN	12.211800	
1.000000	8.000000	13.562697	13.382500	
1.000000	9.000000	14.259291	14.079500	
1.000000	10.000000	15.282981	15.125000	
1.000000	11.000000	16.837150	16.657600	
1.000000	12.000000	17.302450	17.050800	
1.000000	13.000000	18.538550	18.359900	
1.000000	14.000000	19.609976	19.387600	
1.000000	15.000000	20.626658	20.486800	
1.000000	16.000000	21.493149	21.264300	
1.000000	17.000000	22.388523	22.242800	
1.000000	18.000000	23.085020	22.944300	
1.000000	19.000000	24.736409	24.597500	
1.000000	20.000000	25.529511	25.361500	
1.000000	21.000000	26.192239	26.013900	
1.000000	22.000000	27.617800	27.452600	
1.000000	23.000000	29.060441	28.904700	
1.000000	24.000000	29.951322	29.726900	
